<?xml version="1.0" encoding="utf-8"?>
<!-- Generator: Adobe Illustrator 16.0.0, SVG Export Plug-In . SVG Version: 6.00 Build 0)  -->
<!DOCTYPE svg PUBLIC "-//W3C//DTD SVG 1.1//EN" "http://www.w3.org/Graphics/SVG/1.1/DTD/svg11.dtd">
<svg version="1.1" id="Capa_1" xmlns="http://www.w3.org/2000/svg" xmlns:xlink="http://www.w3.org/1999/xlink" x="0px" y="0px"
	 width="485.209px" height="216.634px" viewBox="0 134.287 485.209 216.634" enable-background="new 0 134.287 485.209 216.634"
	 xml:space="preserve">
<g>
	<g>
		<path fill="#FFFFFF" d="M13.125,252.186c-21.101,21.107-10.299,0-10.794,37.289c-0.425,32.348,19.43,32.945,24.714,32.536
			c-1.036-3.972-1.649-8.119-1.649-12.411c0-27.113,22.059-49.18,49.175-49.18c27.112,0,49.173,22.064,49.173,49.18
			c0,4.316-0.609,8.488-1.663,12.477c73.386,0.051,175.445-0.142,251.794-1.308c-0.838-3.595-1.326-7.321-1.326-11.169
			c0-27.113,22.059-49.18,49.171-49.18c27.118,0,49.182,22.064,49.182,49.18c0,2.736-0.285,5.398-0.716,8.02
			c5.458-0.488,8.788-1.033,9.548-1.64c9.813-7.851,5.887-56.917-7.366-67.212c-13.248-10.299-5.893-15.701-6.371-34.839
			c-0.271-10.315-8.784-24.988-16.591-36.377c6.211-1.805,12.291-3.903,18.102-6.889c0.733-0.375,1.188-0.886,1.699-1.365l0,0
			c2.408-2.238,2.641-5.328,1.41-8.022c-0.028-0.11-0.084-0.21-0.128-0.323c-0.139-0.279-0.263-0.555-0.438-0.824
			c-1.135-2.36-3.242-4.294-6.517-4.592c-9.445-0.848-18.751-1.176-27.844-4.136c-1.048-0.336-1.987-0.378-2.895-0.329l-0.161-0.449
			c0,0-71.144-18.152-160.93-16.188c-89.799,1.961-92.247,55.926-169.771,61.328C24.414,201.164,13.125,252.186,13.125,252.186z"/>
		<path fill="#FFFFFF" d="M74.57,268.264c-22.822,0-41.324,18.506-41.324,41.328c0,4.309,0.848,8.38,2.074,12.291
			c5.258,16.779,20.736,29.033,39.259,29.033c18.45,0,33.889-12.166,39.203-28.856c1.264-3.956,2.128-8.097,2.128-12.468
			C115.901,286.77,97.399,268.264,74.57,268.264z"/>
		<path fill="#FFFFFF" d="M421.728,268.264c-22.813,0-41.318,18.506-41.318,41.328c0,3.855,0.697,7.506,1.679,11.049
			c4.854,17.424,20.667,30.279,39.643,30.279c19.864,0,36.433-14.025,40.402-32.705c0.589-2.78,0.926-5.653,0.926-8.615
			C463.057,286.77,444.55,268.264,421.728,268.264z"/>
	</g>
</g>
</svg>
