<?xml version="1.0" encoding="utf-8"?>
<!-- Generator: Adobe Illustrator 16.0.0, SVG Export Plug-In . SVG Version: 6.00 Build 0)  -->
<!DOCTYPE svg PUBLIC "-//W3C//DTD SVG 1.1//EN" "http://www.w3.org/Graphics/SVG/1.1/DTD/svg11.dtd">
<svg version="1.1" id="Capa_1" xmlns="http://www.w3.org/2000/svg" xmlns:xlink="http://www.w3.org/1999/xlink" x="0px" y="0px"
	 width="666px" height="666px" viewBox="0 0 666 666" enable-background="new 0 0 666 666" xml:space="preserve">
<g>
	<path fill="#FFFFFF" d="M332.999,0C166.579,0,31.186,135.395,31.186,301.815v291.531c0,40.062,32.593,72.654,72.654,72.654h458.315
		c40.062,0,72.656-32.593,72.656-72.654V301.815C634.813,135.395,499.419,0,332.999,0z M87.003,301.815
		c0-135.643,110.353-245.998,245.996-245.998s245.997,110.355,245.997,245.998v21.695h-14.615v91.066
		c0,52.887-43.023,95.908-95.904,95.908h-76.164v38.114c0,9.25-7.495,16.745-16.745,16.745h-71.738
		c-9.25,0-16.746-7.495-16.746-16.745v-38.114h-89.56c-52.886,0-95.908-43.024-95.908-95.908V323.51H87.003V301.815z"/>
	<path fill="#FFFFFF" d="M197.524,476.994h89.558v-34.16c0-9.25,7.495-16.745,16.745-16.745h71.739
		c9.25,0,16.745,7.495,16.745,16.745v34.16h76.163c34.415,0,62.415-28,62.415-62.418V323.51H135.107v91.066
		C135.107,448.994,163.107,476.994,197.524,476.994z"/>
	<rect x="320.574" y="459.579" fill="#FFFFFF" width="38.248" height="72.274"/>
</g>
</svg>
