<?xml version="1.0" encoding="utf-8"?>
<!-- Generator: Adobe Illustrator 16.0.0, SVG Export Plug-In . SVG Version: 6.00 Build 0)  -->
<!DOCTYPE svg PUBLIC "-//W3C//DTD SVG 1.1//EN" "http://www.w3.org/Graphics/SVG/1.1/DTD/svg11.dtd">
<svg version="1.1" id="Capa_1" xmlns="http://www.w3.org/2000/svg" xmlns:xlink="http://www.w3.org/1999/xlink" x="0px" y="0px"
	 width="666px" height="666px" viewBox="0 0 666 666" enable-background="new 0 0 666 666" xml:space="preserve">
<g>
	<g>
		<g>
			<polygon fill="#E3F3F3" points="18.293,513.322 0,495.551 333.012,152.678 666,495.551 647.74,513.322 333.012,189.267 			"/>
		</g>
	</g>
	<polygon fill="#E3F3F3" points="333.012,152.678 0,495.551 18.293,513.322 333.012,189.267 647.74,513.322 666,495.551 	"/>
</g>
</svg>
